Dr. Hu’s R Workshop
…
fish_encounters # long

## # A tibble: 114 x 3
##    fish  station  seen
##    <fct> <fct>   <int>
##  1 4842  Release     1
##  2 4842  I80_1       1
##  3 4842  Lisbon      1
##  4 4842  Rstr        1
##  5 4842  Base_TD     1
##  6 4842  BCE         1
##  7 4842  BCW         1
##  8 4842  BCE2        1
##  9 4842  BCW2        1
## 10 4842  MAE         1
## # … with 104 more rows
…
